C:\Users\Alejandro\Desktop\baufest\src\test\java\architecture\Utils.java
C:\Users\Alejandro\Desktop\baufest\src\test\java\runner\StepDefinition.java
C:\Users\Alejandro\Desktop\baufest\src\test\java\pom\demoblaze\DemoBlazeMainLoggedPage.java
C:\Users\Alejandro\Desktop\baufest\src\test\java\runner\RunnerTest.java
C:\Users\Alejandro\Desktop\baufest\src\test\java\architecture\WebDriverManager.java
C:\Users\Alejandro\Desktop\baufest\src\test\java\pom\demoblaze\DemoblazeInit.java
